<svg height="180" id="Layer_1" data-name="Layer 1" xmlns="http://www.w3.org/2000/svg" viewBox="0 0 625.16 592.03">
  <defs>
    <style>
      .cls-1 {
        fill: #d1dae8;
      }

      .cls-2 {
        fill: #c8d0de;
      }

      .cls-3 {
        fill: #eff2f7;
      }

      .cls-4 {
        fill: #fff;
      }

      .cls-5 {
        fill: #9c7aaf;
      }

      .cls-6 {
        fill: #29b47d;
      }

      .cls-7 {
        fill: #f28fb2;
      }
    </style>
  </defs>
  <title>Identify_business_requirement_22</title>
  <g>
    <g>
      <path class="cls-1" d="M571,75.19V567.24A28.71,28.71,0,0,1,542.36,596H116.14A28.72,28.72,0,0,1,87.42,567.3V75.19a28.72,28.72,0,0,1,28.67-28.77H253.65L224.53,68.3A24,24,0,0,0,215,87.42v11a23.22,23.22,0,0,0,1.46,8.19A23.88,23.88,0,0,0,238.9,122.4H423.38a23.88,23.88,0,0,0,22.47-15.73,23.22,23.22,0,0,0,1.46-8.19v-11a24,24,0,0,0-9.55-19.12L408.63,46.41H542.27A28.71,28.71,0,0,1,571,75.1Z" transform="translate(-87.42 -3.98)"/>
      <path class="cls-2" d="M455.25,116.18h61.39a12.57,12.57,0,0,1,12.57,12.55v350l-79.07,69.51H167.38a12.58,12.58,0,0,1-12.56-12.56v-407a12.57,12.57,0,0,1,12.56-12.56h58.46" transform="translate(-87.42 -3.98)"/>
      <path class="cls-3" d="M445.85,106.68h61.39a12.58,12.58,0,0,1,12.56,12.56v350l-79.06,69.51H158a12.58,12.58,0,0,1-12.56-12.56v-407A12.57,12.57,0,0,1,158,106.68h58.44" transform="translate(-87.42 -3.98)"/>
      <polygon class="cls-4" points="432.39 465.27 432.39 465.27 353.33 534.79 353.33 534.79 357.31 463.47 432.39 465.27"/>
      <g>
        <path class="cls-5" d="M466.71,269.81H277a6.33,6.33,0,0,1,0-12.56H466.71a6.33,6.33,0,0,1,0,12.56Z" transform="translate(-87.42 -3.98)"/>
        <path class="cls-5" d="M466.71,327.55H277A6.33,6.33,0,0,1,277,315H466.71a6.33,6.33,0,0,1,0,12.56Z" transform="translate(-87.42 -3.98)"/>
        <path class="cls-5" d="M398.54,385.17H277a6.33,6.33,0,0,1,0-12.56H398.54a6.33,6.33,0,0,1,0,12.56Z" transform="translate(-87.42 -3.98)"/>
        <path class="cls-5" d="M354.67,442.79H277a6.33,6.33,0,0,1,0-12.56h77.73a6.33,6.33,0,0,1,0,12.56Z" transform="translate(-87.42 -3.98)"/>
        <path class="cls-6" d="M213.21,291.62h0a6.33,6.33,0,0,1-4.44-1.84l-10.22-10.22a6.33,6.33,0,1,1,8.86-8.86l5.77,5.79,21.87-21.87a6.33,6.33,0,0,1,8.86,8.86l-26.23,26.3A6.33,6.33,0,0,1,213.21,291.62Z" transform="translate(-87.42 -3.98)"/>
        <path class="cls-6" d="M213.21,345a6.26,6.26,0,0,1-4.44-1.84L198.54,333a6.33,6.33,0,0,1,8.86-8.86l5.79,5.77L235.06,308a6.33,6.33,0,1,1,8.86,8.86l-26.24,26.3A6.33,6.33,0,0,1,213.21,345Z" transform="translate(-87.42 -3.98)"/>
        <path class="cls-6" d="M213.21,398.46a6.26,6.26,0,0,1-4.44-1.84l-10.22-10.22a6.33,6.33,0,0,1,8.86-8.86l5.79,5.79,21.87-21.87a6.33,6.33,0,0,1,8.86,8.86l-26.24,26.3A6.26,6.26,0,0,1,213.21,398.46Z" transform="translate(-87.42 -3.98)"/>
        <path class="cls-6" d="M213.21,451.89a6.26,6.26,0,0,1-4.44-1.84l-10.22-10.22a6.33,6.33,0,0,1,8.86-8.86l5.79,5.79,21.87-21.87a6.33,6.33,0,0,1,8.86,8.86l-26.24,26.3A6.26,6.26,0,0,1,213.21,451.89Z" transform="translate(-87.42 -3.98)"/>
      </g>
      <g>
        <path class="cls-1" d="M176.6,188.07a6.33,6.33,0,0,1-6.33-6.33V159.12a6.33,6.33,0,1,1,12.56,0v22.67A6.33,6.33,0,0,1,176.6,188.07Z" transform="translate(-87.42 -3.98)"/>
        <path class="cls-1" d="M228.11,188.07a6.33,6.33,0,0,1-6.33-6.33V159.12a6.33,6.33,0,1,1,12.56,0v22.67A6.33,6.33,0,0,1,228.11,188.07Z" transform="translate(-87.42 -3.98)"/>
        <path class="cls-1" d="M279.63,188.07a6.33,6.33,0,0,1-6.33-6.33V159.12a6.33,6.33,0,1,1,12.56,0v22.67A6.33,6.33,0,0,1,279.63,188.07Z" transform="translate(-87.42 -3.98)"/>
        <path class="cls-1" d="M331.14,188.07a6.33,6.33,0,0,1-6.33-6.33V159.12a6.33,6.33,0,0,1,12.56,0v22.67A6.33,6.33,0,0,1,331.14,188.07Z" transform="translate(-87.42 -3.98)"/>
        <path class="cls-1" d="M382.66,188.07a6.33,6.33,0,0,1-6.33-6.33V159.12a6.33,6.33,0,0,1,12.56,0v22.67A6.33,6.33,0,0,1,382.66,188.07Z" transform="translate(-87.42 -3.98)"/>
        <path class="cls-1" d="M434.24,188.07a6.33,6.33,0,0,1-6.33-6.33V159.12a6.33,6.33,0,1,1,12.56,0v22.67A6.33,6.33,0,0,1,434.24,188.07Z" transform="translate(-87.42 -3.98)"/>
        <path class="cls-1" d="M485.69,188.07a6.33,6.33,0,0,1-6.33-6.33V159.12a6.33,6.33,0,0,1,12.56,0v22.67A6.33,6.33,0,0,1,485.69,188.07Z" transform="translate(-87.42 -3.98)"/>
      </g>
      <g>
        <path class="cls-5" d="M180,187.45a6.33,6.33,0,0,1-6.33-6.33V158.54a6.33,6.33,0,0,1,12.56,0v22.62A6.33,6.33,0,0,1,180,187.45Z" transform="translate(-87.42 -3.98)"/>
        <path class="cls-5" d="M231.54,187.45a6.33,6.33,0,0,1-6.33-6.33V158.54a6.33,6.33,0,1,1,12.56,0v22.62A6.33,6.33,0,0,1,231.54,187.45Z" transform="translate(-87.42 -3.98)"/>
        <path class="cls-5" d="M283.06,187.45a6.33,6.33,0,0,1-6.33-6.33V158.54a6.33,6.33,0,1,1,12.56,0v22.62A6.33,6.33,0,0,1,283.06,187.45Z" transform="translate(-87.42 -3.98)"/>
        <path class="cls-5" d="M334.57,187.45a6.33,6.33,0,0,1-6.33-6.33V158.54a6.33,6.33,0,1,1,12.56,0v22.62A6.33,6.33,0,0,1,334.57,187.45Z" transform="translate(-87.42 -3.98)"/>
        <path class="cls-5" d="M386.12,187.45a6.33,6.33,0,0,1-6.33-6.33V158.54a6.33,6.33,0,1,1,12.56,0v22.62A6.33,6.33,0,0,1,386.12,187.45Z" transform="translate(-87.42 -3.98)"/>
        <path class="cls-5" d="M437.61,187.45a6.33,6.33,0,0,1-6.33-6.33V158.54a6.33,6.33,0,0,1,12.56,0v22.62A6.33,6.33,0,0,1,437.61,187.45Z" transform="translate(-87.42 -3.98)"/>
        <path class="cls-5" d="M489.12,187.45a6.33,6.33,0,0,1-6.33-6.33V158.54a6.33,6.33,0,0,1,12.56,0v22.62A6.33,6.33,0,0,1,489.12,187.45Z" transform="translate(-87.42 -3.98)"/>
      </g>
      <path class="cls-7" d="M437.76,68.35,408.63,46.41,369,16.63a62.84,62.84,0,0,0-75.61,0L253.65,46.41,224.53,68.3A24,24,0,0,0,215,87.42v11a23.22,23.22,0,0,0,1.46,8.19A23.88,23.88,0,0,0,238.9,122.4H423.38a23.88,23.88,0,0,0,22.47-15.73,23.22,23.22,0,0,0,1.46-8.19v-11A24,24,0,0,0,437.76,68.35Z" transform="translate(-87.42 -3.98)"/>
      <path class="cls-7" d="M447.86,87.48v11a23.22,23.22,0,0,1-1.46,8.19,23.88,23.88,0,0,1-22.47,15.72H239.46A23.63,23.63,0,0,1,221.29,114a23.42,23.42,0,0,0,9.93,2.19H415.7a23.88,23.88,0,0,0,22.47-15.73,23.22,23.22,0,0,0,1.46-8.19v-11A24,24,0,0,0,431.17,63l7.14,5.36A24,24,0,0,1,447.86,87.48Z" transform="translate(-87.42 -3.98)"/>
      <path class="cls-2" d="M447.31,93.64v8.86a23.22,23.22,0,0,1-1.46,8.19,23.88,23.88,0,0,1-22.47,15.73H238.9a23.88,23.88,0,0,1-22.48-15.68,23.22,23.22,0,0,1-1.46-8.19V93.69a23.22,23.22,0,0,0,1.46,8.19,23.88,23.88,0,0,0,22.47,15.73h184.5a23.88,23.88,0,0,0,22.47-15.73A23.22,23.22,0,0,0,447.31,93.64Z" transform="translate(-87.42 -3.98)"/>
      <path class="cls-4" d="M342,54.25a12.82,12.82,0,1,1-12.82-12.82h0A12.82,12.82,0,0,1,342,54.25Z" transform="translate(-87.42 -3.98)"/>
      <polygon class="cls-2" points="357.31 463.47 344.12 534.79 353.33 534.79 357.31 463.47"/>
    </g>
    <g>
      <circle class="cls-1" cx="511.71" cy="310.2" r="119.32" transform="translate(-156.89 448.71) rotate(-45)"/>
      <path class="cls-1" d="M517.08,355.6l40-40h0L704.3,462.75a28.32,28.32,0,0,1,0,40h0a28.32,28.32,0,0,1-40,0L517.08,355.6Z" transform="translate(-87.42 -3.98)"/>
      <circle class="cls-3" cx="511.71" cy="310.2" r="75.32" transform="translate(-156.89 448.71) rotate(-45)"/>
    </g>
  </g>
</svg>
