<svg id="Layer_1" data-name="Layer 1" xmlns="http://www.w3.org/2000/svg" viewBox="0 0 256.42 222.59">
  <defs>
    <style>
      .cls-1 {
        fill: #d7eaf9;
      }

      .cls-2 {
        fill: #9c7aaf;
      }

      .cls-3 {
        fill: #dae2f3;
      }

      .cls-4 {
        fill: #fdf8f8;
      }

      .cls-5 {
        fill: #a4d3f2;
      }

      .cls-6 {
        fill: #faf3e7;
      }

      .cls-7 {
        fill: #f081a2;
      }

      .cls-8 {
        fill: #92cdb8;
      }

      .cls-9 {
        fill: #ffeea7;
      }
    </style>
  </defs>
  <title>SEO</title>
  <g>
    <g>
      <rect class="cls-1" x="5.2" y="5.2" width="246.03" height="212.2" rx="10.39" ry="10.39"/>
      <path class="cls-2" d="M262.62,261.29H37.38a15.61,15.61,0,0,1-15.59-15.59V54.29A15.61,15.61,0,0,1,37.38,38.71H262.62a15.61,15.61,0,0,1,15.59,15.59V245.71A15.61,15.61,0,0,1,262.62,261.29ZM37.38,49.1a5.2,5.2,0,0,0-5.2,5.2V245.71a5.2,5.2,0,0,0,5.2,5.2H262.62a5.2,5.2,0,0,0,5.2-5.2V54.29a5.2,5.2,0,0,0-5.2-5.2Z" transform="translate(-21.79 -38.71)"/>
    </g>
    <g>
      <rect class="cls-3" x="5.2" y="5.2" width="246.03" height="48.84"/>
      <path class="cls-2" d="M273,97.94H27a5.2,5.2,0,0,1-5.2-5.2V43.9a5.2,5.2,0,0,1,5.2-5.2H273a5.2,5.2,0,0,1,5.2,5.2V92.74A5.2,5.2,0,0,1,273,97.94ZM32.18,87.55H267.82V49.1H32.18Z" transform="translate(-21.79 -38.71)"/>
    </g>
    <g>
      <path class="cls-2" d="M51.77,81.2a5.2,5.2,0,0,1-5.2-5.2V60.52a5.2,5.2,0,0,1,10.39,0V76A5.2,5.2,0,0,1,51.77,81.2Z" transform="translate(-21.79 -38.71)"/>
      <path class="cls-2" d="M71.25,81.2a5.2,5.2,0,0,1-5.2-5.2V60.52a5.2,5.2,0,1,1,10.39,0V76A5.2,5.2,0,0,1,71.25,81.2Z" transform="translate(-21.79 -38.71)"/>
      <path class="cls-2" d="M90.74,81.2a5.2,5.2,0,0,1-5.2-5.2V60.52a5.2,5.2,0,0,1,10.39,0V76A5.2,5.2,0,0,1,90.74,81.2Z" transform="translate(-21.79 -38.71)"/>
      <path class="cls-2" d="M110.23,81.2A5.2,5.2,0,0,1,105,76V60.52a5.2,5.2,0,0,1,10.39,0V76A5.2,5.2,0,0,1,110.23,81.2Z" transform="translate(-21.79 -38.71)"/>
      <path class="cls-2" d="M129.72,81.2a5.2,5.2,0,0,1-5.2-5.2V60.52a5.2,5.2,0,1,1,10.39,0V76A5.2,5.2,0,0,1,129.72,81.2Z" transform="translate(-21.79 -38.71)"/>
      <path class="cls-2" d="M149.21,81.2A5.2,5.2,0,0,1,144,76V60.52a5.2,5.2,0,0,1,10.39,0V76A5.2,5.2,0,0,1,149.21,81.2Z" transform="translate(-21.79 -38.71)"/>
      <path class="cls-2" d="M168.69,81.2a5.2,5.2,0,0,1-5.2-5.2V60.52a5.2,5.2,0,1,1,10.39,0V76A5.2,5.2,0,0,1,168.69,81.2Z" transform="translate(-21.79 -38.71)"/>
      <path class="cls-2" d="M188.18,81.2A5.2,5.2,0,0,1,183,76V60.52a5.2,5.2,0,1,1,10.39,0V76A5.2,5.2,0,0,1,188.18,81.2Z" transform="translate(-21.79 -38.71)"/>
      <path class="cls-2" d="M207.67,81.2a5.2,5.2,0,0,1-5.2-5.2V60.52a5.2,5.2,0,1,1,10.39,0V76A5.2,5.2,0,0,1,207.67,81.2Z" transform="translate(-21.79 -38.71)"/>
      <path class="cls-2" d="M227.16,81.2A5.2,5.2,0,0,1,222,76V60.52a5.2,5.2,0,1,1,10.39,0V76A5.2,5.2,0,0,1,227.16,81.2Z" transform="translate(-21.79 -38.71)"/>
      <path class="cls-2" d="M246.65,81.2a5.2,5.2,0,0,1-5.2-5.2V60.52a5.2,5.2,0,1,1,10.39,0V76A5.2,5.2,0,0,1,246.65,81.2Z" transform="translate(-21.79 -38.71)"/>
    </g>
    <g>
      <g>
        <g>
          <rect class="cls-4" x="49.46" y="182.23" width="28.66" height="14.36"/>
          <path class="cls-2" d="M99.91,240.49H71.25a5.2,5.2,0,0,1-5.2-5.2V220.93a5.2,5.2,0,0,1,5.2-5.2H99.91a5.2,5.2,0,0,1,5.2,5.2v14.36A5.2,5.2,0,0,1,99.91,240.49ZM76.45,230.1H94.72v-4H76.45Z" transform="translate(-21.79 -38.71)"/>
        </g>
        <g>
          <rect class="cls-5" x="78.12" y="166.78" width="27.51" height="29.81"/>
          <path class="cls-2" d="M127.42,240.49H99.91a5.2,5.2,0,0,1-5.2-5.2V205.49a5.2,5.2,0,0,1,5.2-5.2h27.51a5.2,5.2,0,0,1,5.2,5.2v29.81A5.2,5.2,0,0,1,127.42,240.49ZM105.11,230.1h17.12V210.69H105.11Z" transform="translate(-21.79 -38.71)"/>
        </g>
        <g>
          <rect class="cls-6" x="105.63" y="159.26" width="25.22" height="37.33"/>
          <path class="cls-2" d="M152.64,240.49H127.42a5.2,5.2,0,0,1-5.2-5.2V198a5.2,5.2,0,0,1,5.2-5.2h25.22a5.2,5.2,0,0,1,5.2,5.2v37.33A5.2,5.2,0,0,1,152.64,240.49Zm-20-10.39h14.83V203.17H132.62Z" transform="translate(-21.79 -38.71)"/>
        </g>
        <g>
          <rect class="cls-7" x="130.85" y="137.34" width="28.09" height="59.25"/>
          <path class="cls-2" d="M180.73,240.49H152.64a5.2,5.2,0,0,1-5.2-5.2V176a5.2,5.2,0,0,1,5.2-5.2h28.09a5.2,5.2,0,0,1,5.2,5.2v59.25A5.2,5.2,0,0,1,180.73,240.49ZM157.84,230.1h17.69V181.24H157.84Z" transform="translate(-21.79 -38.71)"/>
        </g>
        <g>
          <rect class="cls-8" x="158.94" y="113.59" width="26.94" height="83"/>
          <path class="cls-2" d="M207.67,240.49H180.73a5.2,5.2,0,0,1-5.2-5.2v-83a5.2,5.2,0,0,1,5.2-5.2h26.94a5.2,5.2,0,0,1,5.2,5.2v83A5.2,5.2,0,0,1,207.67,240.49ZM185.93,230.1h16.55v-72.6H185.93Z" transform="translate(-21.79 -38.71)"/>
        </g>
        <g>
          <rect class="cls-9" x="185.88" y="84.08" width="27.51" height="112.51"/>
          <path class="cls-2" d="M235.18,240.49H207.67a5.2,5.2,0,0,1-5.2-5.2V122.79a5.2,5.2,0,0,1,5.2-5.2h27.51a5.2,5.2,0,0,1,5.2,5.2V235.29A5.2,5.2,0,0,1,235.18,240.49ZM212.87,230.1H230V128H212.87Z" transform="translate(-21.79 -38.71)"/>
        </g>
      </g>
      <path class="cls-2" d="M248,243.43H44.65a5.2,5.2,0,0,1,0-10.39H248a5.2,5.2,0,0,1,0,10.39Z" transform="translate(-21.79 -38.71)"/>
    </g>
    <g>
      <g>
        <line class="cls-4" x1="46.34" y1="156.69" x2="113.63" y2="89.4"/>
        <path class="cls-2" d="M68.13,200.59a5.2,5.2,0,0,1-3.67-8.87l67.29-67.29a5.2,5.2,0,1,1,7.35,7.35L71.8,199.07A5.18,5.18,0,0,1,68.13,200.59Z" transform="translate(-21.79 -38.71)"/>
      </g>
      <path class="cls-2" d="M139.66,154.15l-.52,0a5.2,5.2,0,0,1-4.66-5.68l2.15-21.65-23.18.94a5.2,5.2,0,1,1-.42-10.38l29.15-1.19a5.2,5.2,0,0,1,5.38,5.71l-2.74,27.6A5.2,5.2,0,0,1,139.66,154.15Z" transform="translate(-21.79 -38.71)"/>
    </g>
  </g>
</svg>
