<svg id="Layer_1" data-name="Layer 1" xmlns="http://www.w3.org/2000/svg" viewBox="0 0 467.19 514.19">
  <defs>
    <style>
      .cls-1 {
        opacity: 0.3;
      }

      .cls-2, .cls-3, .cls-4 {
        fill: none;
        stroke-linecap: round;
        stroke-linejoin: round;
      }

      .cls-2 {
        stroke: #9c7aaf;
        stroke-width: 0.63px;
        stroke-dasharray: 4.38 4.38;
      }

      .cls-3 {
        stroke: #d7b2b8;
        stroke-width: 0.44px;
        stroke-dasharray: 2.19 2.19;
      }

      .cls-4 {
        stroke: #f28fb2;
        stroke-width: 0.64px;
        stroke-dasharray: 3.2 3.2;
      }

      .cls-5 {
        fill: #fff;
      }

      .cls-6 {
        fill: #9c7aaf;
      }

      .cls-7 {
        fill: #f28fb2;
      }

      .cls-8 {
        fill: #5bb59b;
      }

      .cls-9 {
        fill: #e4e8f0;
      }

      .cls-10 {
        fill: #29b47d;
      }

      .cls-11 {
        fill: #f1f2f2;
      }

      .cls-12 {
        fill: #f8fbf6;
      }

      .cls-13 {
        fill: #d1dae8;
      }

      .cls-14 {
        fill: #d1d3d4;
      }
    </style>
  </defs>
  <title>customer support</title>
  <g>
    <g>
      <g class="cls-1">
        <circle class="cls-2" cx="231.17" cy="260.18" r="218.93"/>
      </g>
      <g class="cls-1">
        <circle class="cls-3" cx="231.17" cy="260.18" r="109.48"/>
      </g>
      <g class="cls-1">
        <circle class="cls-4" cx="231.17" cy="260.18" r="159.79"/>
      </g>
    </g>
    <g>
      <circle class="cls-5" cx="406.11" cy="387.95" r="39.95"/>
      <g>
        <path class="cls-6" d="M472.52,399.2l-26.35,21.27c.13,0,.58,2.29.72,2.29l3.42,12.86,44-.81L498,421.94c.13,0,.72-1.45.85-1.47Z" transform="translate(-66.41 -42.91)"/>
        <rect class="cls-7" x="385.48" y="366.91" width="42.04" height="23.84"/>
        <path class="cls-5" d="M446.2,437.91v14a2.28,2.28,0,0,0,2.28,2.28h48.25A2.28,2.28,0,0,0,499,451.9v-14a2.28,2.28,0,0,0-2.28-2.28h-1.14V409.39a1.58,1.58,0,0,0-1.73-1.38H451.23a1.58,1.58,0,0,0-1.73,1.38v26.23h-1A2.28,2.28,0,0,0,446.2,437.91Zm46.15-25.67a2.28,2.28,0,0,1-2.5,2H455.24a2,2,0,1,1,0-4h34.61A2.28,2.28,0,0,1,492.35,412.24Zm0,5.73a2.28,2.28,0,0,1-2.5,2H455.24a2,2,0,1,1,0-4h34.61A2.28,2.28,0,0,1,492.35,418Zm0,5.73a2.28,2.28,0,0,1-2.5,2H455.24a2,2,0,1,1,0-4h34.61A2.28,2.28,0,0,1,492.35,423.69Zm0,5.73a2.28,2.28,0,0,1-2.5,2H455.24a2,2,0,1,1,0-4h34.61A2.28,2.28,0,0,1,492.35,429.42Z" transform="translate(-66.41 -42.91)"/>
        <path class="cls-8" d="M465.37,436.47l6.45,5.37a1.08,1.08,0,0,0,.71.26,1.09,1.09,0,0,0,.71-.26l6.45-5.37,17.66,17.66a2.05,2.05,0,0,1-.53.11H448.25a2.09,2.09,0,0,1-.54-.11Z" transform="translate(-66.41 -42.91)"/>
        <path class="cls-8" d="M446,421.13a2.16,2.16,0,0,1,.13-.66L463.66,435l-17.52,17.52A2.24,2.24,0,0,1,446,452Z" transform="translate(-66.41 -42.91)"/>
        <path class="cls-8" d="M498.87,420.47a2.12,2.12,0,0,1,.14.66V452a2.12,2.12,0,0,1-.11.54L481.38,435Z" transform="translate(-66.41 -42.91)"/>
      </g>
    </g>
    <circle class="cls-5" cx="237.93" cy="39.95" r="39.95"/>
    <path class="cls-8" d="M297.16,81.68l5.72,5.7-7.58,7.9a3.83,3.83,0,0,0-.9,1.48,9.32,9.32,0,0,1-13.55,10.83l7.56-4.38a2,2,0,0,0,.73-2.74l-2.67-4.61a2,2,0,0,0-2.74-.72l-7.56,4.38a9.3,9.3,0,0,1,12-8.94,4.21,4.21,0,0,0,1.31-.9Z" transform="translate(-66.41 -42.91)"/>
    <path class="cls-8" d="M327.91,65.33a9.32,9.32,0,0,1-12,9,3.94,3.94,0,0,0-1.31.9l-10.1,10.5L298.79,80l2-2.08,8-8.33a3.85,3.85,0,0,0,.89-1.46,9.33,9.33,0,0,1,13.55-10.85l-7.56,4.39a2,2,0,0,0-.72,2.72L317.62,69a2,2,0,0,0,2.72.73Z" transform="translate(-66.41 -42.91)"/>
    <path class="cls-6" d="M277.41,58.58l3.27-3.27,5.5,2.23,2.23,5.5,21.72,21.72A2.32,2.32,0,1,1,306.86,88L285.14,66.31l-5.5-2.23Z" transform="translate(-66.41 -42.91)"/>
    <g>
      <path class="cls-7" d="M323.14,109.22a3.63,3.63,0,0,0,5.13.23l3.27-3.27a3.64,3.64,0,0,0-.23-5.13l-17-17a3.64,3.64,0,0,0-5.13-.23L306,87.14a3.64,3.64,0,0,0,.23,5.13Z" transform="translate(-66.41 -42.91)"/>
      <g>
        <path class="cls-9" d="M327.17,101.8c1.18,1.18,2.36,1.92,2.63,1.65l.65-.65c.27-.27-.47-1.45-1.65-2.63L315.24,86.61c-1.18-1.18-2.36-1.92-2.63-1.65l-.65.65c-.27.27.47,1.45,1.65,2.63Z" transform="translate(-66.41 -42.91)"/>
        <path class="cls-9" d="M322.27,106.7c1.18,1.18,2.36,1.92,2.63,1.65l.65-.65c.27-.27-.47-1.45-1.65-2.63L310.34,91.51c-1.18-1.18-2.36-1.92-2.63-1.65l-.65.65c-.27.27.47,1.45,1.65,2.63Z" transform="translate(-66.41 -42.91)"/>
        <path class="cls-9" d="M324.72,104.25c1.18,1.18,2.36,1.92,2.63,1.65l.65-.65c.27-.27-.47-1.45-1.65-2.63L312.79,89.06c-1.18-1.18-2.36-1.92-2.63-1.65l-.66.65c-.27.27.47,1.45,1.65,2.63Z" transform="translate(-66.41 -42.91)"/>
      </g>
    </g>
    <circle class="cls-5" cx="39.95" cy="166.22" r="39.95"/>
    <g>
      <circle class="cls-10" cx="39.95" cy="166.22" r="32.23"/>
      <circle class="cls-11" cx="39.95" cy="166.22" r="27.94"/>
      <g>
        <path class="cls-6" d="M123.52,208a1.34,1.34,0,0,0-1.1-2.27l-16.42,2a1.34,1.34,0,1,0,.32,2.65l16.42-2A1.33,1.33,0,0,0,123.52,208Z" transform="translate(-66.41 -42.91)"/>
        <path class="cls-6" d="M106.63,210a1,1,0,0,0,.22-1.15L96.15,189a.88.88,0,0,0-1.27-.26,1,1,0,0,0-.42,1.31l10.69,19.79a.88.88,0,0,0,1.27.26A1.18,1.18,0,0,0,106.63,210Z" transform="translate(-66.41 -42.91)"/>
      </g>
      <path class="cls-6" d="M93.49,231.42l.07-.09,15.07-25.61a.67.67,0,0,0-.24-.92.68.68,0,0,0-.92.24L92.41,230.65a.67.67,0,0,0,1.09.77Z" transform="translate(-66.41 -42.91)"/>
      <g>
        <path class="cls-7" d="M120.47,219.71" transform="translate(-66.41 -42.91)"/>
        <circle class="cls-7" cx="39.95" cy="144.5" r="1.5"/>
        <circle class="cls-7" cx="39.95" cy="187.93" r="1.5"/>
        <circle class="cls-7" cx="18.23" cy="166.59" r="1.5"/>
        <circle class="cls-7" cx="61.67" cy="166.59" r="1.5"/>
        <circle class="cls-7" cx="21.07" cy="155.77" r="0.82"/>
        <circle class="cls-7" cx="21.15" cy="177.18" r="0.82"/>
        <circle class="cls-7" cx="50.49" cy="185.19" r="0.82"/>
        <circle class="cls-7" cx="58.51" cy="177.22" r="0.82"/>
        <circle class="cls-7" cx="58.47" cy="155.77" r="0.82"/>
        <circle class="cls-7" cx="50.49" cy="147.76" r="0.82"/>
      </g>
    </g>
    <circle class="cls-5" cx="54.85" cy="387.95" r="39.95"/>
    <path class="cls-8" d="M92.07,450.4a3.74,3.74,0,0,0,3.7,3.79h51a3.74,3.74,0,0,0,3.7-3.79V414.86a3.74,3.74,0,0,0-3.7-3.79h-51a3.74,3.74,0,0,0-3.7,3.79Z" transform="translate(-66.41 -42.91)"/>
    <rect class="cls-12" x="28.33" y="371.84" width="53.04" height="35.76"/>
    <rect class="cls-7" x="73.87" y="376.08" width="5.96" height="5.96"/>
    <rect class="cls-9" x="59.14" y="376.08" width="5.96" height="5.96"/>
    <rect class="cls-9" x="66.5" y="376.08" width="5.96" height="5.96"/>
    <rect class="cls-9" x="51.77" y="376.08" width="5.96" height="5.96"/>
    <rect class="cls-9" x="44.4" y="376.08" width="5.96" height="5.96"/>
    <rect class="cls-9" x="29.67" y="376.08" width="5.96" height="5.96"/>
    <rect class="cls-6" x="37.04" y="376.08" width="5.96" height="5.96"/>
    <rect class="cls-9" x="73.87" y="383.17" width="5.96" height="5.96"/>
    <rect class="cls-9" x="59.14" y="383.17" width="5.96" height="5.96"/>
    <rect class="cls-9" x="66.5" y="383.17" width="5.96" height="5.96"/>
    <rect class="cls-9" x="51.77" y="383.17" width="5.96" height="5.96"/>
    <rect class="cls-9" x="44.4" y="383.17" width="5.96" height="5.96"/>
    <rect class="cls-9" x="29.67" y="383.17" width="5.96" height="5.96"/>
    <rect class="cls-9" x="37.04" y="383.17" width="5.96" height="5.96"/>
    <rect class="cls-9" x="73.87" y="390.26" width="5.96" height="5.96"/>
    <rect class="cls-6" x="59.14" y="390.26" width="5.96" height="5.96"/>
    <rect class="cls-9" x="66.5" y="390.26" width="5.96" height="5.96"/>
    <rect class="cls-9" x="51.77" y="390.26" width="5.96" height="5.96"/>
    <rect class="cls-6" x="44.4" y="390.26" width="5.96" height="5.96"/>
    <rect class="cls-7" x="29.67" y="390.26" width="5.96" height="5.96"/>
    <rect class="cls-9" x="37.04" y="390.26" width="5.96" height="5.96"/>
    <rect class="cls-6" x="73.87" y="397.35" width="5.96" height="5.96"/>
    <rect class="cls-9" x="59.14" y="397.35" width="5.96" height="5.96"/>
    <rect class="cls-9" x="66.5" y="397.35" width="5.96" height="5.96"/>
    <g>
      <path class="cls-13" d="M135.12,412.54a1.59,1.59,0,0,0,1.75,1.35h0a1.59,1.59,0,0,0,1.75-1.35v-3.66a1.59,1.59,0,0,0-1.75-1.35h0a1.59,1.59,0,0,0-1.75,1.35Z" transform="translate(-66.41 -42.91)"/>
      <path class="cls-13" d="M124.71,412.54a1.59,1.59,0,0,0,1.75,1.35h0a1.59,1.59,0,0,0,1.75-1.35v-3.66a1.59,1.59,0,0,0-1.75-1.35h0a1.59,1.59,0,0,0-1.75,1.35Z" transform="translate(-66.41 -42.91)"/>
      <path class="cls-13" d="M114.31,412.54a1.59,1.59,0,0,0,1.75,1.35h0a1.59,1.59,0,0,0,1.75-1.35v-3.66a1.59,1.59,0,0,0-1.75-1.35h0a1.59,1.59,0,0,0-1.75,1.35Z" transform="translate(-66.41 -42.91)"/>
      <path class="cls-13" d="M103.9,412.54a1.59,1.59,0,0,0,1.75,1.35h0a1.59,1.59,0,0,0,1.75-1.35v-3.66a1.59,1.59,0,0,0-1.75-1.35h0a1.59,1.59,0,0,0-1.75,1.35Z" transform="translate(-66.41 -42.91)"/>
    </g>
    <g>
      <circle class="cls-5" cx="427.24" cy="166.22" r="39.95"/>
      <g>
        <g>
          <path class="cls-14" d="M478,186.3c.08.1.17.19.24.29a2.53,2.53,0,0,1,.46,1.27c.16,2.25.32,4.49.46,6.74.06.91.09,1.82.11,2.74A3.77,3.77,0,0,1,479,199a1.14,1.14,0,0,1-.53.59c-1,.51-2,1.05-3,1.58l-.2.1c-.42-5.44-.83-10.86-1.25-16.3l.16,0,2.47.73,1,.3Z" transform="translate(-66.41 -42.91)"/>
          <path class="cls-14" d="M492.57,228.66c-1.06-.75-2.11-1.52-3.15-2.29-.35-.26-.68-.54-1-.82a.34.34,0,0,1-.08-.49,2,2,0,0,1,.28-.37,3.85,3.85,0,0,1,.9-.66,3.79,3.79,0,0,1,1.25-.51c.47-.08,1-.12,1.43-.18a.39.39,0,0,1,.3.08l8.47,5.9a1.35,1.35,0,0,1,.54.73,2.71,2.71,0,0,1,.1.45,6.1,6.1,0,0,1-.22,2.59c-.07.22-.17.44-.25.66l-.34.51-.14.07-.12-.08Q496.55,231.46,492.57,228.66Z" transform="translate(-66.41 -42.91)"/>
          <path class="cls-8" d="M472.46,202.28a4.85,4.85,0,0,0-1.28,1.51,3.59,3.59,0,0,0-.31,2.58,8.24,8.24,0,0,0,.51,1.41c.73,1.68,1.56,3.32,2.4,4.94,2.06,4,4.2,7.88,6.38,11.77a2.89,2.89,0,0,0,.24.35,6.5,6.5,0,0,0,1.47,1.41,4.63,4.63,0,0,0,2.27.86,4.54,4.54,0,0,0,2.35-.46l.65-.34.18.13,1.4,1,4.07,2.93,2.64,1.9,4.27,3.07.17.13a.42.42,0,0,1,0,.07l-.09.13a17.43,17.43,0,0,1-1.83,2,13.64,13.64,0,0,1-4.13,2.71,9.18,9.18,0,0,1-8-.4l-.78-.38-1.45-1a2.34,2.34,0,0,0-.18-.16c-.64-.49-1.29-1-1.93-1.46-.79-.61-1.59-1.22-2.36-1.86l-.32-.27q-1.37-1.16-2.7-2.36c-1.07-1-2.09-2-3.08-3l-.26-.27-.21-.23a41.55,41.55,0,0,1-3.74-4.7,22.89,22.89,0,0,1-2.15-3.83c-1.06-2.51-2.05-5-2.9-7.63a54.15,54.15,0,0,1-1.53-5.58c-.14-.66-.26-1.32-.37-2a27.57,27.57,0,0,1-.37-5.66,16,16,0,0,1,1-5.15,7,7,0,0,1,.8-1.54c.38-.53.73-1.07,1.09-1.61a2.33,2.33,0,0,1,.34-.4,34.87,34.87,0,0,1,4.24-3.29,23.11,23.11,0,0,1,3.37-1.86l.21-.09c.38,5.29.76,10.55,1.13,15.81A6.72,6.72,0,0,0,472.46,202.28Z" transform="translate(-66.41 -42.91)"/>
        </g>
        <path class="cls-6" d="M498.57,177.13a27.11,27.11,0,0,0-18.14,6.94,11.35,11.35,0,0,1,1.73,5.72h0c0,.92.08,1.84.16,2.76a20.08,20.08,0,1,1,16.6,31.87c1,.83,2,1.63,3.09,2.37h0a11.38,11.38,0,0,1,3.44,3.88,27.22,27.22,0,0,0-6.89-53.56Zm0,0" transform="translate(-66.41 -42.91)"/>
        <path class="cls-7" d="M490.38,204.85a21.94,21.94,0,0,0-3.76,4.2,8.55,8.55,0,0,0-1,2.39,1.29,1.29,0,0,0,1.26,1.6h9a2,2,0,1,0,0-4h-4.05l.1-.12c.26-.3.91-.92,1.93-1.85a21.32,21.32,0,0,0,2.2-2.23,9.41,9.41,0,0,0,1.38-2.3,6.38,6.38,0,0,0,.45-2.37,5,5,0,0,0-1.59-3.73,6,6,0,0,0-4.3-1.49,6.63,6.63,0,0,0-4.13,1.27,4.76,4.76,0,0,0-1.53,2.1,2.06,2.06,0,0,0,1.72,2.81h.21a2.11,2.11,0,0,0,2-1.42,1.66,1.66,0,0,1,.36-.63,1.71,1.71,0,0,1,1.29-.47,1.73,1.73,0,0,1,1.29.45,1.81,1.81,0,0,1,.45,1.35,3.15,3.15,0,0,1-.6,1.74,21.49,21.49,0,0,1-2.64,2.71Zm0,0" transform="translate(-66.41 -42.91)"/>
        <path class="cls-8" d="M508.36,194.94h-1.5a1.29,1.29,0,0,0-1.07.56l-6.94,10.16a1.77,1.77,0,0,0-.31,1v1.65a1.29,1.29,0,0,0,1.29,1.29h5.69V211a2.06,2.06,0,1,0,4.12,0V209.6h.21a1.91,1.91,0,1,0,0-3.83h-.21v-9.54a1.29,1.29,0,0,0-1.29-1.29Zm-2.83,10.83H503l2.56-3.8Zm0,0" transform="translate(-66.41 -42.91)"/>
      </g>
    </g>
    <g>
      <circle class="cls-5" cx="240.96" cy="474.24" r="39.95"/>
      <g>
        <path class="cls-8" d="M300.76,531.63H273.35a5.42,5.42,0,0,1-5.42-5.42V512.88a5.42,5.42,0,0,1,5.42-5.42H305.3a5.42,5.42,0,0,1,5.42,5.42v26.86l-8.33-7.49A2.43,2.43,0,0,0,300.76,531.63Z" transform="translate(-66.41 -42.91)"/>
        <path class="cls-6" d="M324.42,511H343.1a3.69,3.69,0,0,0,3.69-3.69v-9.08a3.69,3.69,0,0,0-3.69-3.69H321.34a3.69,3.69,0,0,0-3.69,3.69v18.3l5.67-5.1A1.65,1.65,0,0,1,324.42,511Z" transform="translate(-66.41 -42.91)"/>
        <path class="cls-7" d="M298.12,497.71h-10.8a2.13,2.13,0,0,1-2.13-2.13v-5.25a2.13,2.13,0,0,1,2.13-2.13h12.58a2.13,2.13,0,0,1,2.13,2.13V500.9L298.76,498A1,1,0,0,0,298.12,497.71Z" transform="translate(-66.41 -42.91)"/>
      </g>
    </g>
    <g>
      <path class="cls-9" d="M234.37,364.28c-.06-9.45-.45-18.92,0-28.35a50.42,50.42,0,0,1,3-15.11,14.2,14.2,0,0,1,6.58-7.47c9.71-4.35,19.78-7.88,29.67-11.71,1.9,5.79,3.2,10.77,5.14,15.48A44.2,44.2,0,0,0,296.18,338a6.22,6.22,0,0,0,7.63-.07c10.34-7,16.62-16.68,19.79-28.58.56-2.11,1.07-4.23,1.61-6.34,0-.1.14-.18.46-.55,10.85,3.05,22.26,5.14,32,11.56,5.66,3.73,7.13,10.19,7.48,16.41.64,11.26.55,22.56.77,33.85Z" transform="translate(-66.41 -42.91)"/>
      <path class="cls-8" d="M268.21,254c0-4.13-.18-8.26,0-12.38.44-8.64,4.48-15.31,12.22-19.14,13-6.44,26.11-6.83,39,.56,7.77,4.46,11.5,11.45,11.83,20.21a113.45,113.45,0,0,1-.63,12.41c-.12,1.66,0,2.78,1.6,4,1.3,1,2.54,3.47,2.21,4.93-.82,3.61-2,7.43-4.09,10.38-2.28,3.17-2.21,5.56-.1,8.36s4.36,5.64,6.5,8.49c.95,1.26,1.78,2.61,2.82,4.16-8.12,3-15.71,4.17-22.68-1.45-3.34,2.13-6.57,4.1-9.69,6.22a12,12,0,0,1-13.37.66c-3.63-2-7-4.36-10.76-6.7-6.88,5.37-14.47,4.46-22.44,1.64,2.95-6.68,9.07-11.48,10.23-19.06-7.25.21-8.81-.74-11.48-7.05a48,48,0,0,1-2.47-7.16c-.89-3.63-.75-7.06,2.64-9.67a4.55,4.55,0,0,0,1.29-3,38,38,0,0,0,0-6.22c-1.06-15.43,7.22-25,20.15-31.16,17.44-8.31,39.86-3.91,51.88,9.68,4.6,5.2,7.27,11.12,7,18.23-.16,3.92.07,7.85-.11,11.76,0,1-1,1.93-1.56,2.89-.86-1-2.25-1.84-2.46-2.94a24.83,24.83,0,0,1-.23-6.89c1.06-11.33-4-19.56-13-25.77-13.58-9.38-34.65-8.1-47.19,2.35-8.41,7-10.89,15.92-9.77,26.27a32.44,32.44,0,0,0,1.63,5.61Zm6.38,10.13a40.45,40.45,0,0,0-2.81-3.66c-.38-.4-1.5-.7-1.75-.47a2.48,2.48,0,0,0-.78,2c2.45,10.7,8.63,18.06,19.33,21.27.59.18,1.66.33,1.84.06,2.13-3.18,5.34-2.06,8.22-2.18,2.34-.1,4.12.76,4.38,3.35s-1.12,4.2-3.6,4.65a11.44,11.44,0,0,1-4.43,0c-4.75-1.09-9.46-2.39-14.18-3.61a64.67,64.67,0,0,0,9.71,8.9c6.94,5,11.12,4.75,18.29.08,9.69-6.32,14.65-16.31,20.45-25.66a6.21,6.21,0,0,0,.83-3.64,24.3,24.3,0,0,0-1.36-4.63c-1.21.79-2.42,1.59-3.65,2.37a8.29,8.29,0,0,1-1.28.37c4.34-11,1.65-19.74-7.6-26.89-6.3,9.66-15.64,13.15-26.25,14.11-3.55.32-7.14.31-10.7.57-4.73.35-6.27,2.35-5.57,7Z" transform="translate(-66.41 -42.91)"/>
    </g>
  </g>
</svg>
