<svg id="Layer_1" data-name="Layer 1" xmlns="http://www.w3.org/2000/svg" viewBox="0 0 569.48 416.68">
  <defs>
    <style>
      .cls-1 {
        fill: #d5f5e9;
      }

      .cls-2 {
        fill: #e6f1eb;
      }

      .cls-3 {
        fill: #f0f3f8;
      }

      .cls-4 {
        fill: #e3effa;
      }

      .cls-5 {
        fill: #3a4750;
      }

      .cls-6 {
        fill: #bcbace;
      }

      .cls-7 {
        fill: #bbdece;
      }

      .cls-8 {
        fill: #e3f9f0;
      }

      .cls-9 {
        fill: #fdfefd;
      }

      .cls-10 {
        fill: #dfeaf5;
      }

      .cls-11 {
        fill: #d2d0e6;
      }

      .cls-12 {
        fill: #d97695;
      }

      .cls-13 {
        fill: #303841;
      }

      .cls-14 {
        fill: #f183a6;
      }

      .cls-15 {
        fill: #a3bfb1;
      }

      .cls-16 {
        fill: #2abaa1;
      }

      .cls-17 {
        fill: #4a4549;
      }

      .cls-18 {
        fill: #5edbc5;
      }

      .cls-19 {
        fill: #fcf4e9;
      }

      .cls-20 {
        fill: #eebcc5;
      }

      .cls-21 {
        fill: #9c7aaf;
      }

      .cls-22 {
        fill: #4e836c;
      }

      .cls-23 {
        fill: #c28877;
      }

      .cls-24 {
        fill: #2f8371;
      }
    </style>
  </defs>
  <title>slider-02</title>
  <polygon class="cls-1" points="146.6 281.63 146.6 284.57 154.05 284.57 154.05 275.02 146.6 281.63"/>
  <rect class="cls-2" x="197.01" y="280.53" width="7.34" height="4.65"/>
  <path class="cls-3" d="M337.6,292.75c1.59,2.45,2.82,5.26,5.75,6.73.12.61.12,1.35.24,2a68.28,68.28,0,0,0-27.66,14.44c-.37-2.33,1-5.14-2.33-6.49a36.9,36.9,0,0,1,0-13.22c.37-.12.73-.12,1.1-.24a14,14,0,0,0,1.35-1.35C323.16,294,330.63,296.18,337.6,292.75Z" transform="translate(-15.26 -91.66)"/>
  <g>
    <path class="cls-4" d="M557.06,203.77c-23.13-39.9-58-62.42-104.77-65-.12,45.41-.12,90.82-.37,136.35v19.58a12.15,12.15,0,0,1,1.59,6.49c1.35.73,2.57,1.59,3.92,2.33,8.93-2.08,13.59,5.39,18.48,9.91,21.17,19.34,38.06,41.61,43.94,70.74.86,4,.73,8.08,1,12.12,9.79-3.43,19.58-7,28.15-12.85,25.21-17.26,34-43.33,35.49-72C586.56,272.92,576.27,236.82,557.06,203.77Z" transform="translate(-15.26 -91.66)"/>
    <path class="cls-4" d="M417.9,138.78v93.63h-2.33V140.49c-11.63,0-22.64,3.55-33.29,7.22-30.72,10.53-59.12,25.58-84.09,47-22.4,19.34-42.1,40.76-56.06,67.07-.49.37-.86.86-1.35,1.22a2.36,2.36,0,0,0-.37,1.22c20.44,0,41,.12,61.32.49,10.28,0,11.14,1,11.26,11.14,0,6.85.24,13.59.37,20.44a3.57,3.57,0,0,0,1.1-.24l1.35-1.35c7.22-.61,14.69,1.59,21.66-1.84-.24-3.79-.37-7.59-.61-11.38-.37-2.82-.73-5.51-1.1-8.2-5.26-2.82-5.87-9.55-11.51-12.85-3.55-2,.24-7.22,4.28-8.2,6.49-1.47,11.38-4.77,16.16-9.06,4.41-4,10-4.16,15.42-2.2,15.67,5.88,21.66,22.89,13,37,4.28,3.67,9.42,2.08,14.08,1.71,20.68-1.35,39.78,3.67,58.14,12.61a14.69,14.69,0,0,1,3.3,2.33c.61,0,1.22-.12,1.84-.12q-.06-78.7-.24-157.28A238.1,238.1,0,0,1,417.9,138.78Zm15.67,124c-1.22,4.53-6.24,1.47-9.3,2.57,0,4.65-2.82,7.1-6.85,7.34-4.53.24-7-3.06-8-7.34-2.57-1-6.49,1.47-7.83-2.08s1-6.73,3.3-9.3a72.89,72.89,0,0,1,6.61-5.63c0-1.59-.12-3.18,0-4.77.12-3.43,1.84-5.63,5.51-5.51s5.14,2.45,5.26,5.87c0,1.59-.12,3.18-.12,4.77a32.31,32.31,0,0,1,5.75,3.06C431.48,254.57,434.79,258.24,433.56,262.77Z" transform="translate(-15.26 -91.66)"/>
  </g>
  <path class="cls-5" d="M313.62,309.4v8.2l-11.38,12.48c-3.67,2.94-7.34,5.87-11,8.69q-50.86-.18-101.71-.49c0-20.44.12-40.88-.12-61.32,0-4.53.61-8.69,3.43-12.24,1.1-.12,2.2-.37,3.43-.49h44.18l61.44.37c10.4,0,11.75,1,11.75,11.14.12,6.85-.12,13.59,0,20.44A40.16,40.16,0,0,0,313.62,309.4Z" transform="translate(-15.26 -91.66)"/>
  <path class="cls-3" d="M132.23,271.58c9.3,5.39,19.46,9.42,25.58,19.34,7.47,12.24,6.73,19.09-5,27.66-7.83,5.63-13.83,12.24-14.2,22.52-1-.12-2-.12-2.94-.24-6.12-6.36-5.75-12-.12-19C143,312.7,142.26,306,135,296.3c-1.22-1.71-2.2-3.92-3.79-5.14-7.34-5.39-11.51-11.26-3.92-19.58Z" transform="translate(-15.26 -91.66)"/>
  <path class="cls-6" d="M94.77,488c-6-.61-4.28-5.51-4.53-8.81-1.47-30.23-2.82-60.34-4.16-90.57-.12-3.18-.73-6.49-1-9.67-.12-.61-.12-1.1-.24-1.71a2.55,2.55,0,0,0,.12-1.35l-.24-.12c3.18,0,6.36.12,9.67.12Q94.53,431.79,94.77,488Z" transform="translate(-15.26 -91.66)"/>
  <path class="cls-6" d="M450.45,294.47q-.18-78.58-.24-157.28c.24-1,.37-2.08.61-3.06,2,1.1.61,3.18,1.35,4.65L451.8,275v19.58C451.43,294.59,450.94,294.47,450.45,294.47Z" transform="translate(-15.26 -91.66)"/>
  <path class="cls-6" d="M418,138.78v93.63h-2.33V91.66H418Z" transform="translate(-15.26 -91.66)"/>
  <path class="cls-7" d="M85,375.12a2.55,2.55,0,0,1-.12,1.35H45.45v-1.35Z" transform="translate(-15.26 -91.66)"/>
  <path class="cls-8" d="M119.13,271.58v8.2c-2.57-1.71-6-3.3-5.51-6.73C114,270.6,117.17,271.95,119.13,271.58Z" transform="translate(-15.26 -91.66)"/>
  <path class="cls-9" d="M242.14,261.79c-.49.37-.86.86-1.35,1.22C241.28,262.64,241.65,262.15,242.14,261.79Z" transform="translate(-15.26 -91.66)"/>
  <path class="cls-10" d="M520.71,396.42c-18.11,4.16-36.6,3.43-55.08,3.18-18.11-.24-36-3.55-54-5.63-4-.49-8.08-.61-12.12-.86-.37,14.44-3.92,19.34-17.14,24.11-1.47.49-3.18.61-4.16,2.2.61,13.46,4.9,26.07,7.34,39.17,1.47,8,3.55,15.91,5.14,23.87.49,2.45,2,6.12-1.71,6.85s-3.79-2.69-4.41-5.51c-3.3-16.16-7.83-32.07-9.91-48.59a6.18,6.18,0,0,0-3.06-4.65c-1.22,3.18-3.06,5.75-7,5.14-5.14-.86-7,6.85-12.61,4.9-1.1,14.08-2.33,28-3.43,42.1-.12,2.57-.86,5.26-3.92,5s-2.57-3.18-2.45-5.14c1.1-13.83,1.71-27.66,3.67-41.25.73-5.14,1.59-9.3-3.55-12.24-3.92,2-8.2,3.3-10,8,2.08,1.71-.49,3.43,0,5.14a3.3,3.3,0,0,1,3.3,1.71c.61.49,1.1,1.1,1.71,1.59.24.37.49.61.73,1-.37-.24-.61-.49-1-.73a20.31,20.31,0,0,1-1.59-1.71,3,3,0,0,1-3.18-1.71h-4.77a3.12,3.12,0,0,1-3.3,1.59l-1.59,1.59a3.21,3.21,0,0,1-3.3,1.71c-.61.49-1.1,1.1-1.71,1.59a3.12,3.12,0,0,1-3.18,1.71c-.61.49-1.22,1.1-1.84,1.59-6.24,7.1-5.51,16.52-8.08,24.85-1,2.69-1.1,5.75-2,8.57-1.47,4.65-3.79,4.77-6.49.73-4.53-.12-8.81,1.59-13.22,2.69-2.69.61-5.39,1.47-6.24-2.45,2.82-6.36,11.38-6.12,14.32-12.24-4.77-11.87-9.67-23.62-14.44-35.49-2.2,13.46-4.53,26.93-6.73,40.39.61,2.82,1.35,5.63,2,8.45-6.12,5.87-22.15,5-27.78-1.47,5.39-3.79,12.36-3.18,18-6.49-2.94-6.85-1.1-14-1.35-20.93-.73-16.4-.86-32.8-2-49.08-.86-12.24,5-19.58,15.18-24.6a108,108,0,0,1,20.81-7.34c-5-2.94-10.65-1.22-15.91-1.35-12.73-.37-25.58-.37-38.31-.49-5.87-.73-7.71,1.71-8,7.83-1.35,32.19-3.18,64.26-4.77,96.45-.24,5.75-2,9.06-8.32,6.24-3.18-8.69-1.71-17.75-2.33-26.68-1.84-27.17-3.06-54.47-4-81.76-.24-6,5.39-1.22,8.08-2.33,4.65,1.1,5.14-6.49,9.67-5.51.61-.61,1.35-1.22,2-1.84.12-4.77.37-9.42.49-14.2-13.34-.12-26.56-.37-39.9-.49-11.38-.37-8.08-8.81-8.32-15.18-.12-21.79-.24-43.69-.37-65.48-.12-5.63,2-8.93,8.2-8.2,1.22-.12,2.33-.37,3.43-.49.37-3.06,3.55-1.71,5-3.43-2.33-1-4.41-2.08-6.61-2.94-20.93-8.57-49.45-2.33-62.42,13.83,9.3,5.39,19.46,9.3,25.58,19.34,7.47,12.24,6.73,19.09-5,27.66-7.71,5.63-13.83,12.24-14.2,22.52.73.24,1.59.49,2.33.73,3.3.73,8.32-1.84,9.79,1.47,1.84,4.16-3.3,6.85-5.51,10,4.41,1,9.42-2,13.46,1.71l1.47,1.47c2.57,1.59,1.1,4.28,1.59,6.49,0,3.3.12,6.73.12,10,1.84.24,3.92-.61,5.39,1.1-.12,2.69-2.2,2.08-3.55,2.08-12,.12-24,.12-36,.12-2.94,0-5.51-.24-6.85-3.3l-.12-.12c-5.51-2.33-1.84-6.24-1.59-9.55-1-.86-3.92,1.35-3.18-2.08v-5.63c.12-4,3.18-2,4.9-2.08,3.92-.37,8-.24,11.87-.24-2.08-3.67-8.2-6-3.67-11.63.61-2.94,1.59-3.67,3.55-.86,1.1,0,2.08-.12,3.06-.12-6.24-6.24-5.87-12-.12-19C143,312.7,142.26,306,135,296.3c-1.22-1.71-2.08-3.92-3.79-5.14-7.34-5.51-11.51-11.26-3.92-19.58h-8.2v8.2c.24,2.94-1.35,5-3.06,7.22-19.58,26.07-31.33,55.2-31.33,88.25,3.18,0,6.49.12,9.42.37,10.89-.86,10.65-1.1,10.16,10.28l-3.67,83c-.12,4.65-.73,9.3-1.22,13.83-.37,2.94-1,5.51-4.9,4.77-6-.61-4.41-5.51-4.53-8.81-1.47-30.23-2.69-60.34-4.16-90.57-.12-3.18-.61-6.49-1-9.67-.86.24-2.08.12-2.33.61-7.47,14.08-21.17,18.73-34.88,23.62-10.89,3.79-22,8.2-27.29,19.34-11,23-3.18,43.33,14,58.87,19.22,17.38,43.33,23.87,68.42,25.21,22.52,1.22,45.16.12,67.81,1.71,16.65,1.22,33.29-1.22,49.81-1.22,46.63.12,93.26-1.84,139.9,1.35,22.64,1.47,45.16-1.35,67.81-2,22.89-.73,43.57-8.93,60.22-25.46C511.65,457.37,522.79,429.35,520.71,396.42Zm-311.37-6.73c-2.2,17.87-2.33,35.74-3.06,53.61-.49,12.48-2.33,24.85-2,37.45.12,4.41-1.59,9.06-8.08,5.87-3.55-9.42-1.84-19.34-2.69-28.89-2.08-24.36-2.45-48.71-3.79-73.07-.37-6.49,1.22-9.79,8.32-8.32h0C210.07,376.72,210.68,377.33,209.34,389.69Z" transform="translate(-15.26 -91.66)"/>
  <path class="cls-10" d="M393.91,294.34c7.34-.61,14.44.49,21.05,4.65,8,4.9,12.24,11.51,10.77,20.93-1.59,10.4-6.24,18.85-16.28,23.5-6.49,15.79-8.32,32.92-9.91,49.69,4,.24,8.35.4,12.39.89,18,2.2,35.71,6.31,53.83,6.56,18.36.37,36.77.84,55-3.32-.24-4,0-9.39-.91-13.43-5.87-29.13-22.77-51.41-43.94-70.74-4.9-4.53-9.55-11.87-18.48-9.91,2.33,4,1.35,8.32,1.59,12.61,6.85,3.55,13.1,7.59,16.16,15.3,3.43,8.57,2.08,10.65-7.1,10.65h-4.9c-2,5.87-4.9,10.53-11.87,10.16-6.24-.24-9.79-3.79-10.65-10-4.28-1.1-10.53,2.69-12.36-2.82-1.47-4.77,1.71-9.91,5.26-14a25.48,25.48,0,0,1,10.4-7.59c.12-5.87-2.08-12.36,4.77-16.28v-6.61a32,32,0,0,0-3.3-2.33c-18.36-8.93-37.45-14.08-58.14-12.61-4.65.37-9.79,2-14.08-1.71-4,3.3-10.65,3.06-12.36,8.93,1.47,3.06,1.71,6.61,4.16,9.18C374.45,292,384.36,295.2,393.91,294.34Z" transform="translate(-15.26 -91.66)"/>
  <path class="cls-3" d="M409.33,343.79c-6.61,15.67-8.32,32.43-9.79,49.2-.49,14.44-3.92,19.34-17.14,24.11-1.47.49-3.3.61-4.16,2.2-2.69,0-5.26.12-8,.12H353.39c-2,0-4,.12-6,.12-10.53.24-21.05-1.84-31.33,1.1-1.71,0-3.3.12-5,.12-.49-1-1-2.08-1.59-3.06,23.13-.73,35.13-10.28,40.39-32.56,2.2-9.3,4.9-18.36,9.55-26.8,7.71-13.83,18.24-22.89,35.37-21.05a116.61,116.61,0,0,0,13.1.12C409.94,339,409.08,341.47,409.33,343.79Z" transform="translate(-15.26 -91.66)"/>
  <path class="cls-11" d="M220.72,375.25c4.65,1.1,5.26-6.12,9.79-5.14.73,0,1.59-.12,2.33-.12,3.18.61,4.41-1,4.28-4-.12-4-.12-8.08-.24-12,6.49-.12,13.1-.12,19.58-.24,0,3.92.12,7.83.12,11.75-6.12-.12-13.22-2.2-14.69,7.22l-1.47,2.2c-.12.49-.24.86-.37,1.35-5.87-.73-7.71,1.59-8,7.83-1.22,32.19-3.18,64.26-4.77,96.45-.24,5.75-2,8.93-8.32,6.24,2.2-1,2-3.06,2-4.9C221,446,220.84,410.74,220.72,375.25Z" transform="translate(-15.26 -91.66)"/>
  <path class="cls-3" d="M256.58,353.71c-6.49.12-13.1.12-19.58.24-1.35,0-2.57.12-3.92.12-13.34-.12-26.56-.37-39.9-.49-4.41-4-3.18-9.42-3.43-14.56l.12-.49-.37-.24q50.86.18,101.71.49l-17.62,15.05C268,353.83,262.33,353.71,256.58,353.71Z" transform="translate(-15.26 -91.66)"/>
  <path class="cls-11" d="M198.07,376.35c12,.37,12.61,1,11.14,13.34-2.2,17.75-2.2,35.74-3.06,53.61-.49,12.48-2.45,24.85-2,37.45.12,4.41-1.59,9.06-8.08,5.87,2.94-2.69,1.71-6.12,1.71-9.18C198,443.67,198,410,198.07,376.35Z" transform="translate(-15.26 -91.66)"/>
  <path class="cls-11" d="M94.77,488c-.12-37.45-.24-74.78-.37-112.24,10.89-.73,10.77-.73,10.16,10.65-1.35,27.66-2.45,55.32-3.67,83-.24,4.65-.86,9.18-1.22,13.83C99.3,486.14,98.69,488.71,94.77,488Z" transform="translate(-15.26 -91.66)"/>
  <path class="cls-12" d="M276.41,438.89c1.22-8.2,1.47-11.26,2.69-19.46,2.82,0,5.51.12,8.32.12.37,1,1.1-2,1.47-1.1.12,2.08,2.45-.37,3.92.61,1.84,16.28,3.67,34.39,5.51,50.67,0,.61-.12,1.22-.12,1.71-1.47,3.18-3.79,4.53-7.22,2.82C286,462.51,281.18,450.76,276.41,438.89Z" transform="translate(-15.26 -91.66)"/>
  <path class="cls-6" d="M220.72,376.72c.12,35.49.24,69.28.24,104.89,0,1.84.24,3.92-2,4.9-3.06-8.69-1.71-17.87-2.33-26.68-1.71-27.29-3.06-54.47-4-81.76C212.64,372.06,218,377.82,220.72,376.72Z" transform="translate(-15.26 -91.66)"/>
  <path class="cls-6" d="M198.07,376.35q0,50.49-.24,101c0,3.06,1.22,6.61-1.71,9.18-3.55-9.3-1.84-19.22-2.69-28.89-2.08-24.23-2.45-48.71-3.79-73.07C189.26,378.18,191,374.88,198.07,376.35Z" transform="translate(-15.26 -91.66)"/>
  <path class="cls-6" d="M370.16,419.31c2.69,0,5.26-.12,8-.12.61,13.34,5,26.07,7.34,39.17,1.47,8,3.55,15.91,5.14,23.87.49,2.45,2.08,6.12-1.71,6.85s-3.79-2.69-4.41-5.51C381.42,467.41,370.77,423,370.16,419.31Z" transform="translate(-15.26 -91.66)"/>
  <path class="cls-6" d="M301.38,463.74c3.06-14,6.24-28,9.3-42,.12-.37.12-.61.37-.86a1.64,1.64,0,0,1,1.1-.24h3.18a1.22,1.22,0,0,1,.86.24.92.92,0,0,1,.12.61,64.18,64.18,0,0,1-1.84,9.67c-2.57,11.75-3.79,23.5-7.34,35-2.08,6.73-2.57,13.83-5,20.44a4.14,4.14,0,0,1-1.84,2.45c-3.79,1.47-4.53-4.53-3.92-6.73.86-2.82,3.18-5.51,2.45-8.57C298.68,473,301.12,465.39,301.38,463.74Z" transform="translate(-15.26 -91.66)"/>
  <path class="cls-10" d="M315.94,429v-8.45c10.4-2.94,20.93-.86,31.33-1.1-.73,3.67,1.1,8.81-5,9.55-3.92,2-8.2,3.3-10,8-1.59.12-3.3.12-4.9.24h0l-1.71-1.71h.12a3.12,3.12,0,0,0-3.3-1.71h.12a24.48,24.48,0,0,1-1.71-2A5.37,5.37,0,0,0,315.94,429Z" transform="translate(-15.26 -91.66)"/>
  <path class="cls-3" d="M161.72,363.25c0,3.3.12,6.73.12,10h-.12c-9.91,0-19.71,0-29.62.12-3.79,0-7.59-.12-11.26-.12l-.12-.12c.12-3.18-.49-6.49,1.59-9.3C135.53,363.62,148.63,363.5,161.72,363.25Z" transform="translate(-15.26 -91.66)"/>
  <path class="cls-13" d="M192.81,264.72c-2.82,3.67-3.43,7.71-3.43,12.24.12,20.44.12,40.88.12,61.32l.37.24-.12.49c-1.59-.24-3.18-.37-4.9-.61-.12-21.79-.12-43.69-.37-65.48C184.61,267.29,186.69,264,192.81,264.72Z" transform="translate(-15.26 -91.66)"/>
  <path class="cls-10" d="M353.64,429c-.12-3.18-.12-6.49-.24-9.67h16.89c.49,3.67,1,7.34,1.59,11.14-1.35,3.06-3.06,5.75-7,5.14-5.26-.86-7.1,6.85-12.61,4.9.24-2.82-1.1-5.87,1.59-8.2.86-.49,2.2-.73,2.33-1.35C356.33,429.22,354.74,429.22,353.64,429Z" transform="translate(-15.26 -91.66)"/>
  <path class="cls-3" d="M115.95,361.42v-5.63c14.2-1.35,28.4-.37,42.59-.49l-.12-.12,1.71,1.71-.12-.12c-.24,4.53-3.3,5-6.85,4.9C140.79,361.66,128.31,361.54,115.95,361.42Z" transform="translate(-15.26 -91.66)"/>
  <path class="cls-6" d="M135.65,341c1,.12,2,.12,2.94.24a12.93,12.93,0,0,0,2.33.73c3.3.86,8.32-1.71,9.79,1.47,1.84,4.16-3.3,6.73-5.51,10H132.72c-2.08-3.55-8.2-6-3.67-11.63a30.11,30.11,0,0,0,3.55-.86Z" transform="translate(-15.26 -91.66)"/>
  <path class="cls-14" d="M261.72,479.77c2.82,2.33,5.39,1.35,7.83-.49.61,2.82,1.35,5.63,2,8.45-9.3.12-18.6,1.47-27.78-1.47C249.24,482.46,256.21,483.08,261.72,479.77Z" transform="translate(-15.26 -91.66)"/>
  <path class="cls-14" d="M298.07,471.57c2.69,4.16-.73,7.34-1.84,10.89-6.49,1.59-12.85,4-19.71,4,2.82-6.36,11.38-6,14.32-12.24C294.28,476.22,296.48,474.88,298.07,471.57Z" transform="translate(-15.26 -91.66)"/>
  <path class="cls-7" d="M240.18,376.1c.12-.49.24-.86.37-1.35h14.81c2.57-1.47,5.39-1.59,8.2-1.71a42.18,42.18,0,0,0,11.87,1.71c8.32.12,16.65-1,24.85.73-1.35,2.2-3.55,2.57-5.87,2.33-5.14-2.82-10.65-1.1-15.91-1.35C265.76,376.23,252.91,376.23,240.18,376.1Z" transform="translate(-15.26 -91.66)"/>
  <path class="cls-15" d="M115.95,361.42c12.48.12,24.85.24,37.33.24,3.55,0,6.61-.49,6.85-4.9,2.69,1.59,1.1,4.28,1.59,6.49-13.1.24-26.19.37-39.29.61a30,30,0,0,0-3.3-.24C118.15,362.64,115.21,364.84,115.95,361.42Z" transform="translate(-15.26 -91.66)"/>
  <path class="cls-3" d="M243.73,486.26c9.18,2.94,18.48,1.59,27.78,1.47C265.39,493.6,249.36,492.75,243.73,486.26Z" transform="translate(-15.26 -91.66)"/>
  <path class="cls-6" d="M233.08,354.07c1.35,0,2.57-.12,3.92-.12.12,4,.12,8.08.24,12,.12,3.06-1.1,4.53-4.28,4-.12-.61-.24-1.1-.37-1.71C232.71,363.5,232.84,358.85,233.08,354.07Z" transform="translate(-15.26 -91.66)"/>
  <path class="cls-15" d="M132.59,353.46h12.48c2.82.61,5.87-.37,8.81-.12a8,8,0,0,1,4.65,1.84c-14.2.24-28.4-.86-42.59.49.12-4,3.18-2,4.9-2.08C124.76,353.34,128.68,353.46,132.59,353.46Z" transform="translate(-15.26 -91.66)"/>
  <path class="cls-7" d="M185,338.41c1.59.24,3.18.37,4.9.61.12,5-1,10.4,3.43,14.56C181.8,353.22,185.22,344.89,185,338.41Z" transform="translate(-15.26 -91.66)"/>
  <path class="cls-3" d="M276.53,486.63c6.85,0,13.22-2.45,19.71-4,0,1.22-.12,2.57-.12,3.79-4.65-.12-8.93,1.59-13.22,2.69C280.08,489.69,277.39,490.54,276.53,486.63Z" transform="translate(-15.26 -91.66)"/>
  <path class="cls-15" d="M160.13,356.89l-1.71-1.71A22.6,22.6,0,0,0,160.13,356.89Z" transform="translate(-15.26 -91.66)"/>
  <path class="cls-15" d="M324.14,443.79l-1.59,1.59-.12-.12a6.77,6.77,0,0,1,1.71-1.47Z" transform="translate(-15.26 -91.66)"/>
  <path class="cls-2" d="M232.47,368.27c.12.61.24,1.1.37,1.71-.73,0-1.59.12-2.33.12C231.24,369.49,231.86,368.88,232.47,368.27Z" transform="translate(-15.26 -91.66)"/>
  <path class="cls-16" d="M453.88,301c4.53,4.53,4.9,9.91,5.14,15.05-5.14.12-10.28-.24-15.18,1.59.12-5.87-2.08-12.36,4.77-16.28A38,38,0,0,1,453.88,301Z" transform="translate(-15.26 -91.66)"/>
  <path class="cls-3" d="M453.64,301c-1.59.12-3.3.12-4.9.24v-6.61c.61,0,1.22-.12,1.84-.12s1,.12,1.47.12A11.48,11.48,0,0,1,453.64,301Z" transform="translate(-15.26 -91.66)"/>
  <path class="cls-17" d="M373.22,277.94c-3.92,3.3-10.65,3.06-12.24,9.3-3.18,1.35-5.87-.61-8.81-1.1-.37-.24-.61-.49-1-.73a12.68,12.68,0,0,1,.49,1.22c.24,6.24-1.1,11.51-8.32,12.85-2.82-1.47-4-4.16-5.75-6.73-.24-3.79-.37-7.59-.61-11.38,2.69-1.1,5.14,4.41,7.71.61,1.59-2.2.24-5.26-.73-7.71-2-4.77-5.51.24-8.2-1.1-5.39-2.82-5.87-9.55-11.51-12.85-3.55-2.08.24-7.22,4.28-8.2,6.36-1.47,11.38-4.77,16.16-9.06,4.41-4,10-4.16,15.42-2.2C375.91,246.73,381.79,263.87,373.22,277.94Zm-23.5-8.57c-2.33-.61-3.06.86-2.69,2.2.61,3.3.49,7.34,3.67,9.3,1.22.73,2.33-1.84,2.45-3.43C353.52,274,352.78,271,349.72,269.38Z" transform="translate(-15.26 -91.66)"/>
  <path class="cls-18" d="M409.45,265.34c-2.57-1-6.49,1.35-7.83-2.08s1-6.73,3.3-9.3a72.89,72.89,0,0,1,6.61-5.63l10.65.37a32.31,32.31,0,0,1,5.75,3.06c3.55,2.82,6.85,6.49,5.63,11s-6.24,1.35-9.3,2.57Z" transform="translate(-15.26 -91.66)"/>
  <path class="cls-16" d="M422.18,248.69l-10.65-.37c0-1.59-.12-3.18,0-4.77.24-3.43,2-5.63,5.51-5.51s5.14,2.45,5.26,5.87C422.3,245.39,422.18,247,422.18,248.69Z" transform="translate(-15.26 -91.66)"/>
  <path class="cls-19" d="M409.45,265.34h14.81c0,4.65-2.82,7.1-6.85,7.34C412.88,272.92,410.43,269.62,409.45,265.34Z" transform="translate(-15.26 -91.66)"/>
  <path class="cls-20" d="M335.89,273.17c2.57,1.47,6.24-3.67,8.2,1.1,1,2.45,2.2,5.39.73,7.71-2.45,3.67-5-1.71-7.71-.61C336.63,278.68,336.26,275.86,335.89,273.17Z" transform="translate(-15.26 -91.66)"/>
  <path class="cls-9" d="M315.94,294.59l-1.35,1.35A14,14,0,0,1,315.94,294.59Z" transform="translate(-15.26 -91.66)"/>
  <path class="cls-21" d="M315.82,315.76a69.77,69.77,0,0,1,27.66-14.44c7.71-.24,15.54-.37,23.26-.61,21.3,1.47,32.8,10.65,37.58,29.86-5.51,0-10.89.24-16.4,0-13.71-.73-23.38,5.63-31,16.28-7.34,10.28-10.16,22.15-13.1,34-1.59,6.36-3.3,12.61-8.81,17-4.41-7.83-4-17.14-7.47-25.21-.61-7.22-1.22-14.44-2-21.66-.24-3.18,1.47-7.59-1.1-9.18-3.43-2.2-5.75,2.82-9.06,3.67-7.34-2.57-9.42-9.79-13.22-15.42l11.38-12.48Z" transform="translate(-15.26 -91.66)"/>
  <path class="cls-20" d="M302.23,330.08c3.79,5.75,5.87,12.85,13.22,15.42a22.29,22.29,0,0,1-8.69,6.73c-11.38,4.77-22.64,9.79-33.9,14.93-3.3,1.47-7.47,2-9.18,6-2.82.12-5.63.24-8.2,1.71-3.18-8.81-8.45-4.41-13.34-2.2,1.47-9.3,8.57-7.34,14.69-7.22,8-.49,11.63-7.34,17-11.63l17.62-15.05C295,335.84,298.56,332.9,302.23,330.08Z" transform="translate(-15.26 -91.66)"/>
  <path class="cls-2" d="M315.82,315.76a26.93,26.93,0,0,1-2.2,1.71v-8.2C316.92,310.62,315.57,313.56,315.82,315.76Z" transform="translate(-15.26 -91.66)"/>
  <path class="cls-3" d="M404.31,330.7c-4.77-19.22-16.28-28.4-37.58-29.86-.61-1.47-1.22-2.94-1.84-4.53,9.42-4,19.22-.86,28.89-1.71a32.13,32.13,0,0,1,21.05,4.65c8,4.9,12.24,11.51,10.77,20.93-1.59,10.4-6.36,18.85-16.28,23.5-.24-2.2.61-4.77-1.59-6.49C408,334.37,405.53,332.9,404.31,330.7Z" transform="translate(-15.26 -91.66)"/>
  <path class="cls-18" d="M444,317.48c4.9-1.84,10-1.47,15.18-1.59,6.85,3.55,13.1,7.59,16.16,15.3,3.3,8.57,2.08,10.53-7.1,10.65h-4.9a50,50,0,0,0-22.52.12c-4.16-1.1-10.53,2.69-12.36-2.82-1.59-4.77,1.71-9.91,5.26-14C436.5,321.88,439.68,318.95,444,317.48Z" transform="translate(-15.26 -91.66)"/>
  <path class="cls-19" d="M440.66,341.83a51.78,51.78,0,0,1,22.52-.12c-2,5.75-4.77,10.4-11.87,10.16C444.95,351.62,441.4,348.08,440.66,341.83Z" transform="translate(-15.26 -91.66)"/>
  <path class="cls-20" d="M365,296.42c.61,1.47,1.22,2.94,1.84,4.53-7.71.24-15.54.37-23.26.61-.12-.61-.12-1.35-.24-2,7.22-1.35,8.57-6.61,8.32-12.85l.49-.49c2.94.37,5.63,2.45,8.81,1.1C362.33,290.3,362.57,293.85,365,296.42Z" transform="translate(-15.26 -91.66)"/>
  <path class="cls-10" d="M296.11,417.72c4.41,0,8.81,0,13.22-.12.49,1,1,2.08,1.59,3.06-3.3,14.56-6.61,29.13-9.79,43.82-.49,2.2-.86,4.28-3.06,5.39-1.84-16.28-3.67-34.39-5.51-50.67C294.64,418.94,296.11,419.92,296.11,417.72Z" transform="translate(-15.26 -91.66)"/>
  <path class="cls-3" d="M263.68,373.17c1.71-3.92,5.87-4.53,9.18-6,11.26-5.14,22.52-10,33.9-14.93a22.54,22.54,0,0,0,8.69-6.73c3.3-.86,5.63-5.87,9.06-3.67,2.57,1.59.86,6,1.1,9.18.73,7.22,1.22,14.44,2,21.66-9.06,1-18.24,2-27.29,2.82-8.2-1.71-16.52-.61-24.85-.73A37.86,37.86,0,0,1,263.68,373.17Z" transform="translate(-15.26 -91.66)"/>
  <path class="cls-6" d="M347.4,419.43c2,0,4-.12,6-.12.86.12-1,17-1.1,18.48-1,11-1.84,21.91-2.69,32.92-.37,3.92-.61,7.83-1,11.75-.24,2.57-.86,5.26-3.92,5s-2.57-3.06-2.45-5.14c1.1-13.71,1.71-27.54,3.67-41.25C346.54,436.08,346.54,423.1,347.4,419.43Z" transform="translate(-15.26 -91.66)"/>
  <path class="cls-22" d="M289.5,412.33c-.49.73-.86,1.35-1.35,2.08-2.82,0-5.51-.12-8.32-.12-3.43-.37-7,.73-10.28-2C276.16,411.11,282.77,409.88,289.5,412.33Z" transform="translate(-15.26 -91.66)"/>
  <path class="cls-2" d="M273.71,353.83c-5.39,4.28-8.93,11.14-17,11.63,0-3.92-.12-7.83-.12-11.75C262.33,353.71,268,353.83,273.71,353.83Z" transform="translate(-15.26 -91.66)"/>
  <path class="cls-3" d="M242,372.68c4.9-2.33,10.28-6.61,13.34,2.2H240.55Z" transform="translate(-15.26 -91.66)"/>
  <path class="cls-9" d="M296.11,417.72c0,2.33-1.47,3.06-3.43,3.3-1.47-.86-3.18-1.59-3.3-3.67A63.74,63.74,0,0,1,296.11,417.72Z" transform="translate(-15.26 -91.66)"/>
  <path class="cls-10" d="M353.64,429c1.1.24,2.69.24,2.33,2-.12.61-1.47.86-2.33,1.35Z" transform="translate(-15.26 -91.66)"/>
  <path class="cls-20" d="M349.72,269.38c3.06,1.59,3.79,4.65,3.43,8.08-.12,1.59-1.22,4.16-2.45,3.43-3.18-2-3.06-5.87-3.67-9.3C346.66,270.23,347.4,268.76,349.72,269.38Z" transform="translate(-15.26 -91.66)"/>
  <path class="cls-23" d="M351.68,286.63a12.68,12.68,0,0,1-.49-1.22c.37.24.61.49,1,.73C352,286.14,351.68,286.63,351.68,286.63Z" transform="translate(-15.26 -91.66)"/>
  <rect class="cls-10" x="302.03" y="340.14" width="23.01" height="25.46"/>
  <path class="cls-2" d="M292.69,420.9" transform="translate(-15.26 -91.66)"/>
  <polygon class="cls-12" points="263.35 330.47 266.06 314.19 250.76 313.45 248.17 328.14 263.35 330.47"/>
  <polyline class="cls-24" points="264.57 323.73 265.8 314.19 275.97 314.68 276.94 325.69 262.62 324.47"/>
  <path class="cls-6" d="M289.75,417.23l-10.16-.86s0-4.41.61-4.41,11.75.37,13,.24" transform="translate(-15.26 -91.66)"/>
  <path class="cls-3" d="M386.2,402.91s10.89,3.3,9.18,6.24-12.85,9.3-17.14,10-61.44,1.71-61.44,1.71-37.45-.86-37.7-1.22a11.79,11.79,0,0,1,.49-3.3,170.78,170.78,0,0,0,19.34,1.22c8.45-.12,6.61-2.57,6.61-2.57" transform="translate(-15.26 -91.66)"/>
  <path class="cls-6" d="M404.31,330.7c1.22,2.2,3.67,3.55,3.43,6.49-4.41,0-8.81.24-13.1-.12-17.14-1.84-27.66,7.22-35.37,21.05-4.65,8.45-7.34,17.5-9.55,26.8-5.26,22.4-17.38,31.82-40.39,32.56-4.41,0-8.81,0-13.22.12l-6.85-.37c-.37-1-.73-1.84-1.1-2.82.49-.73.86-1.35,1.35-2.08,7.83-.49,15.67-.49,23.38-1.59,8.93-1.22,17.38-3.92,22.15-12.73,5.51-4.28,7.22-10.53,8.81-17,2.94-11.87,5.87-23.87,13.1-34,7.59-10.65,17.38-17,31-16.28C393.42,330.94,398.92,330.7,404.31,330.7Z" transform="translate(-15.26 -91.66)"/>
  <polygon class="cls-5" points="298.36 200.36 298.49 221.66 290.28 220.19 298.36 200.36"/>
  <rect class="cls-3" x="30.07" y="283.47" width="263.76" height="3.67"/>
  <path class="cls-14" d="M261.72,479.77c-2.94-6.85-1.1-14-1.35-20.93-.61-16.4-.86-32.68-2-49.08-.86-12.24,5-19.46,15.18-24.6a102.45,102.45,0,0,1,20.81-7.34c2.33.24,4.41-.12,5.87-2.33,9.06-1,18.24-2,27.29-2.82,3.55,8.08,3.18,17.38,7.47,25.21-4.77,8.81-13.34,11.51-22.15,12.73-7.71,1.1-15.54,1.1-23.38,1.59-6.73-2.45-13.34-1.22-20-.12,3.3,2.82,6.85,1.59,10.28,2-1.22,8.2-2.33,16.4-3.55,24.6-2.2,13.46-4.53,26.93-6.73,40.39C267.11,481.24,264.54,482.22,261.72,479.77Z" transform="translate(-15.26 -91.66)"/>
  <polygon class="cls-12" points="264.22 325.2 265.8 316.63 255.4 315.78 264.22 325.2"/>
  <polyline class="cls-12" points="274.24 320.67 262.13 320.67 266.67 315.9"/>
  <path class="cls-3" d="M131.25,291.16S121,281,118.4,279.29s-.86-7.83-.86-7.83,12.24-1,14.69,0S138.47,287,138.47,287" transform="translate(-15.26 -91.66)"/>
  <path class="cls-15" d="M161.23,358.11s-.37-4.41-7.34-4.77,5.87,1.59,6.12,4.28" transform="translate(-15.26 -91.66)"/>
  <polygon class="cls-10" points="294.32 365.1 300.68 332.02 331.73 332.02 330.8 348.1 306.3 375.25 294.32 365.1"/>
  <polygon class="cls-10" points="338.22 330.47 336.48 352.86 359.77 349.14 355.32 329.88 338.22 330.47"/>
</svg>
